…
cleaned_df =
  homicide_new %>% 
   mutate(
    solve_status = ifelse(disposition %in% c("Closed without arrest", "Open/No arrest"),0,1),
    victim_age = as.numeric(victim_age)
  ) %>% 
  drop_na() %>% 
  filter( 
          victim_race %in% c("White", "Black"),
         !city_state %in% c("Dallas, TX", "Phoenix, AZ", "Kansas City, MO", "Tulsa, AL")) 

cleaned_df
```

    ## # A tibble: 39,361 × 14
    ## # Groups:   city_state [47]
    ##    uid   repor…¹ victi…² victi…³ victi…⁴ victi…⁵ victi…⁶ city  state   lat   lon
    ##    <chr>   <dbl> <chr>   <chr>   <chr>     <dbl> <chr>   <chr> <chr> <dbl> <dbl>
    ##  1 Alb-…  2.01e7 SATTER… VIVIANA White        15 Female  Albu… NM     35.1 -107.
    ##  2 Alb-…  2.01e7 MULA    VIVIAN  White        72 Female  Albu… NM     35.1 -107.
    ##  3 Alb-…  2.01e7 BOOK    GERALD… White        91 Female  Albu… NM     35.2 -107.
    ##  4 Alb-…  2.01e7 MARTIN… GUSTAVO White        56 Male    Albu… NM     35.1 -107.
    ##  5 Alb-…  2.01e7 GRAY    STEFAN… White        43 Female  Albu… NM     35.1 -107.
    ##  6 Alb-…  2.01e7 BRITO   ELIZAB… White        22 Female  Albu… NM     35.1 -107.
    ##  7 Alb-…  2.01e7 KING    TEVION  Black        15 Male    Albu… NM     35.1 -107.
    ##  8 Alb-…  2.01e7 BOYKIN  CEDRIC  Black        25 Male    Albu… NM     35.1 -107.
    ##  9 Alb-…  2.01e7 BARRAG… MIGUEL  White        20 Male    Albu… NM     35.1 -107.
    ## 10 Alb-…  2.01e7 WRONSKI VIOLA   White        88 Female  Albu… NM     35.1 -107.
    ## # … with 39,351 more rows, 3 more variables: disposition <chr>,
    ## #   city_state <chr>, solve_status <dbl>, and abbreviated variable names
    ## #   ¹​reported_date, ²​victim_last, ³​victim_first, ⁴​victim_race, ⁵​victim_age,
    ## #   ⁶​victim_sex
…
  mutate(
    model = map(data, ~glm(solve_status ~ victim_age + victim_race + victim_sex, data = .x, family = binomial())),
     results = map(model, broom::tidy))%>%
  select(city_state, results) %>% 
  unnest(results) %>% 
  mutate(OR = exp(estimate),
         CI_lower = exp(estimate -1.96*std.error),
         CI_higher = exp(estimate +1.96*std.error)
         ) %>%
  filter(term == c("victim_sexMale")) %>% 
  select(city_state, term, OR, CI_lower, CI_higher) 
fit_glm
```

    ## # A tibble: 47 × 5
    ## # Groups:   city_state [47]
    ##    city_state      term              OR CI_lower CI_higher
    ##    <chr>           <chr>          <dbl>    <dbl>     <dbl>
    ##  1 Albuquerque, NM victim_sexMale 1.73     0.814     3.70 
    ##  2 Atlanta, GA     victim_sexMale 1.00     0.684     1.46 
    ##  3 Baltimore, MD   victim_sexMale 0.426    0.325     0.558
    ##  4 Baton Rouge, LA victim_sexMale 0.381    0.209     0.695
    ##  5 Birmingham, AL  victim_sexMale 0.873    0.576     1.32 
    ##  6 Boston, MA      victim_sexMale 0.672    0.355     1.27 
    ##  7 Buffalo, NY     victim_sexMale 0.522    0.291     0.939
    ##  8 Charlotte, NC   victim_sexMale 0.884    0.557     1.40 
    ##  9 Chicago, IL     victim_sexMale 0.410    0.336     0.501
    ## 10 Cincinnati, OH  victim_sexMale 0.400    0.236     0.677
    ## # … with 37 more rows
…
``` r
birthweight %>% 
  select(bwt, blength, gaweeks, bhead, babysex) %>% 
  drop_na() %>% 
  mutate(
    babysex = case_when(babysex == 1 ~ "Male",
              babysex == 2 ~ "Female") %>% 
      as.factor()
  )
```

    ## # A tibble: 4,342 × 5
    ##      bwt blength gaweeks bhead babysex
    ##    <dbl>   <dbl>   <dbl> <dbl> <fct>  
    ##  1  3629      51    39.9    34 Female 
    ##  2  3062      48    25.9    34 Male   
    ##  3  3345      50    39.9    36 Female 
    ##  4  3062      52    40      34 Male   
    ##  5  3374      52    41.6    34 Female 
    ##  6  3374      52    40.7    33 Male   
    ##  7  2523      46    40.3    33 Female 
    ##  8  2778      49    37.4    33 Female 
    ##  9  3515      52    40.3    36 Male   
    ## 10  3459      50    40.7    33 Male   
    ## # … with 4,332 more rows
…
